{
  "count": 11,
  "next": "https://wrds-api.wharton.upenn.edu/data/ibes.actu_epsus/?limit=10&offset=10&pdicity=QTR&pends__gte=2024-01-01&ticker=JNJ",
  "previous": null,
  "results": [
    {
      "actdats": "2024-04-16",
      "acttims": "08:27:00",
      "anndats": "2024-04-16",
      "anntims": "06:20:00",
      "cname": "JOHNSON & JOHNSO",
      "curr_act": "USD",
      "cusip": "47816010",
      "measure": "EPS",
      "oftic": "JNJ",
      "pdicity": "QTR",
      "pends": "2024-03-31",
      "ticker": "JNJ",
      "usfirm": 1,
      "value": 2.71
    },
    {
      "actdats": "2024-07-17",
      "acttims": "07:40:39",
      "anndats": "2024-07-17",
      "anntims": "06:20:00",
      "cname": "JOHNSON & JOHNSO",
      "curr_act": "USD",
      "cusip": "47816010",
      "measure": "EPS",
      "oftic": "JNJ",
      "pdicity": "QTR",
      "pends": "2024-06-30",
      "ticker": "JNJ",
      "usfirm": 1,
      "value": 2.82
    },
    {
      "actdats": "2024-10-15",
      "acttims": "06:40:44",
      "anndats": "2024-10-15",
      "anntims": "06:20:00",
      "cname": "JOHNSON & JOHNSO",
      "curr_act": "USD",
      "cusip": "47816010",
      "measure": "EPS",
      "oftic": "JNJ",
      "pdicity": "QTR",
      "pends": "2024-09-30",
      "ticker": "JNJ",
      "usfirm": 1,
      "value": 2.42
    },
    {
      "actdats": "2025-01-22",
      "acttims": "06:37:42",
      "anndats": "2025-01-22",
      "anntims": "06:20:00",
      "cname": "JOHNSON & JOHNSO",
      "curr_act": "USD",
      "cusip": "47816010",
      "measure": "EPS",
      "oftic": "JNJ",
      "pdicity": "ANN",
      "pends": "2024-12-31",
      "ticker": "JNJ",
      "usfirm": 1,
      "value": 9.98
    },
    {
      "actdats": "2025-01-22",
      "acttims": "06:37:40",
      "anndats": "2025-01-22",
      "anntims": "06:20:00",
      "cname": "JOHNSON & JOHNSO",
      "curr_act": "USD",
      "cusip": "47816010",
      "measure": "EPS",
      "oftic": "JNJ",
      "pdicity": "QTR",
      "pends": "2024-12-31",
      "ticker": "JNJ",
      "usfirm": 1,
      "value": 2.04
    },
    {
      "actdats": "2025-04-15",
      "acttims": "06:44:50",
      "anndats": "2025-04-15",
      "anntims": "06:20:00",
      "cname": "JOHNSON & JOHNSO",
      "curr_act": "USD",
      "cusip": "47816010",
      "measure": "EPS",
      "oftic": "JNJ",
      "pdicity": "QTR",
      "pends": "2025-03-31",
      "ticker": "JNJ",
      "usfirm": 1,
      "value": 2.77
    },
    {
      "actdats": "2025-07-16",
      "acttims": "06:42:50",
      "anndats": "2025-07-16",
      "anntims": "06:20:00",
      "cname": "JOHNSON & JOHNSO",
      "curr_act": "USD",
      "cusip": "47816010",
      "measure": "EPS",
      "oftic": "JNJ",
      "pdicity": "QTR",
      "pends": "2025-06-30",
      "ticker": "JNJ",
      "usfirm": 1,
      "value": 2.77
    },
    {
      "actdats": "2025-10-14",
      "acttims": "06:34:16",
      "anndats": "2025-10-14",
      "anntims": "06:20:00",
      "cname": "JOHNSON & JOHNSO",
      "curr_act": "USD",
      "cusip": "47816010",
      "measure": "EPS",
      "oftic": "JNJ",
      "pdicity": "QTR",
      "pends": "2025-09-30",
      "ticker": "JNJ",
      "usfirm": 1,
      "value": 2.8
    },
    {
      "actdats": "2026-01-21",
      "acttims": "07:14:55",
      "anndats": "2026-01-21",
      "anntims": "06:20:00",
      "cname": "JOHNSON & JOHNSO",
      "curr_act": "USD",
      "cusip": "47816010",
      "measure": "EPS",
      "oftic": "JNJ",
      "pdicity": "ANN",
      "pends": "2025-12-31",
      "ticker": "JNJ",
      "usfirm": 1,
      "value": 10.79
    },
    {
      "actdats": "2026-01-21",
      "acttims": "07:14:51",
      "anndats": "2026-01-21",
      "anntims": "06:20:00",
      "cname": "JOHNSON & JOHNSO",
      "curr_act": "USD",
      "cusip": "47816010",
      "measure": "EPS",
      "oftic": "JNJ",
      "pdicity": "QTR",
      "pends": "2025-12-31",
      "ticker": "JNJ",
      "usfirm": 1,
      "value": 2.46
    }
  ]
}